{
    "musicId": 148,
    "events": [
        {
            "bar": 0,
            "bpm": 132,
            "section": "intro"
        },
        {
            "bar": 12,
            "section": "verse"
        },
        {
            "bar": 28,
            "section": "bridge"
        },
        {
            "bar": 36,
            "section": "chorus"
        },
        {
            "bar": 58,
            "section": "outro"
        }
    ]
}