{
    "musicId": 155,
    "events": [
        {
            "bar": 0,
            "bpm": 114,
            "section": "intro"
        },
        {
            "bar": 10,
            "section": "verse"
        },
        {
            "bar": 26,
            "section": "bridge"
        },
        {
            "bar": 42,
            "section": "chorus"
        },
        {
            "bar": 50,
            "section": "outro"
        }
    ]
}