{
    "musicId": 160,
    "events": [
        {
            "bar": 0,
            "bpm": 204
        },
        {
            "bar": 1,
            "section": "intro"
        },
        {
            "bar": 17,
            "section": "intro"
        },
        {
            "bar": 25,
            "section": "verse"
        },
        {
            "bar": 49,
            "section": "bridge"
        },
        {
            "bar": 65,
            "section": "chorus"
        },
        {
            "bar": 81,
            "section": "outro"
        }
    ]
}