{
    "musicId": 168,
    "events": [
        {
            "bar": 0,
            "bpm": 153
        },
        {
            "bar": 2,
            "section": "intro"
        },
        {
            "bar": 10,
            "section": "verse"
        },
        {
            "bar": 22,
            "section": "verse-2"
        },
        {
            "bar": 30,
            "section": "bridge"
        },
        {
            "bar": 38,
            "section": "chorus"
        },
        {
            "bar": 46,
            "section": "post-chorus"
        },
        {
            "bar": 57,
            "section": "outro"
        }
    ]
}