{
    "musicId": 169,
    "events": [
        {
            "bar": 0,
            "bpm": 150
        },
        {
            "bar": 1,
            "section": "intro"
        },
        {
            "bar": 9,
            "section": "verse"
        },
        {
            "bar": 17,
            "section": "bridge"
        },
        {
            "bar": 30,
            "section": "chorus"
        },
        {
            "bar": 47,
            "barLength": 1
        },
        {
            "bar": 48,
            "barLength": 4,
            "section": "chorus-2"
        },
        {
            "bar": 68,
            "section": "post-chorus"
        },
        {
            "bar": 84,
            "section": "outro"
        }
    ]
}