{
    "musicId": 175,
    "events": [
        {
            "bar": 0,
            "bpm": 181
        },
        {
            "bar": 5,
            "section": "intro"
        },
        {
            "bar": 13,
            "section": "verse"
        },
        {
            "bar": 29,
            "section": "bridge"
        },
        {
            "bar": 38,
            "section": "chorus"
        },
        {
            "bar": 54,
            "barLength": 3
        },
        {
            "bar": 56,
            "barLength": 4
        },
        {
            "bar": 57,
            "section": "inter"
        },
        {
            "bar": 65,
            "section": "bridge-2"
        },
        {
            "bar": 81,
            "section": "inter-2"
        },
        {
            "bar": 89,
            "section": "chorus-2"
        },
        {
            "bar": 106,
            "section": "outro"
        }
    ]
}